# Icons set here are the ones shown in component editor list.

component_set = {
	key = "OBSERVATORY_1"

	icon = "GFX_ship_part_sensor_1"
	icon_frame = 1
}

component_set = {
	key = "OBSERVATORY_2"

	icon = "GFX_ship_part_sensor_2"
	icon_frame = 1
}

component_set = {
	key = "OBSERVATORY_3"

	icon = "GFX_ship_part_sensor_3"
	icon_frame = 1
}

component_set = {
	key = "OBSERVATORY_4"

	icon = "GFX_ship_part_sensor_4"
	icon_frame = 1
}

component_set = {
	key = "ARMOR_1"

	icon = "GFX_ship_part_armor_1"
	icon_frame = 1
}

component_set = {
	key = "ARMOR_2"

	icon = "GFX_ship_part_armor_2"
	icon_frame = 1
}

component_set = {
	key = "ARMOR_3"

	icon = "GFX_ship_part_armor_3"
	icon_frame = 1
}

component_set = {
	key = "ARMOR_4"

	icon = "GFX_ship_part_armor_4"
	icon_frame = 1
}

component_set = {
	key = "ARMOR_5"

	icon = "GFX_ship_part_armor_5"
	icon_frame = 1
}

component_set = {
	key = "CRYSTAL_ARMOR_1"

	icon = "GFX_ship_part_crystal_armor_1"
	icon_frame = 1
}

component_set = {
	key = "CRYSTAL_ARMOR_2"

	icon = "GFX_ship_part_crystal_armor_2"
	icon_frame = 1
}

component_set = {
	key = "AUTO_REPAIR"

	icon = "GFX_ship_part_auto_repair"
	icon_frame = 1
}

component_set = {
	key = "BULWARK_3_BATTLEWRIGHT"

	icon = "GFX_ship_part_crystal_armor_1"
	icon_frame = 1
}

component_set = {
	key = "ARMOR_HARDENER_1"

	icon = "GFX_ship_part_armor_hardener_1"
}

component_set = {
	key = "ARMOR_HARDENER_2"

	icon = "GFX_ship_part_armor_hardener_2"
}