# from = country
# this = species

migration_control_yes = {
	can_migrate = no
	ai_will_do = {
		factor = 2
		modifier = {
			factor = 0.1
			from = {
				OR = {
					NOT = { has_authority = auth_machine_intelligence }
					has_valid_civic = civic_machine_servitor
				}
			}
		}
	}
}

migration_control_no = {
	potential = {
		exists = from
		NOR = {
			has_trait = trait_machine_unit
			has_trait = trait_mechanical
		}
	}

	allow = {
		hidden_trigger = { exists = from }
		custom_tooltip = {
			NOR = {
				has_citizenship_type = { country = from type = citizenship_purge_machine }
				has_citizenship_type = { country = from type = citizenship_purge }
			}
			fail_text = is_undesirables_tooltip
		}
		custom_tooltip = {
			fail_text = cant_be_livestock_or_matrix
			NAND = {
				has_citizenship_type = { country = from type = citizenship_slavery }
				OR = {
					has_slavery_type = { country = from type = slavery_livestock }
					has_slavery_type = { country = from type = slavery_matrix }
				}
			}
		}
	}
	ai_will_do = {
		factor = 1
	}
}
