tr_versatility_adopt = {
	modifier = {
		planet_pop_assemblers_upkeep_mult = -0.10
	}
}

tr_versatility_finish = {
	custom_tooltip = tr_versatility_finish_desc
	modifier = {
		ascension_perks_add = 1
	}
}

tr_versatility_universal_compatibility = {
	modifier = {
		country_synthetic_trust_cap_add = 50
		envoys_add = 1
	}

	ai_weight = {
		factor = 1000
	}
}

tr_versatility_adaptive_programming = {
	possible = {
		has_tradition = tr_versatility_universal_compatibility
	}

	modifier = {
		country_trade_fee = -0.10
	}

	ai_weight = {
		factor = 5000
	}
}

tr_versatility_spatial_optimization = {

	modifier = {
		pop_housing_usage_mult = -0.10
	}

	ai_weight = {
		factor = 5000
	}
}

tr_versatility_material_analysis = {
	possible = {
		has_tradition = tr_versatility_spatial_optimization
	}

	modifier = {
		planet_jobs_upkeep_mult = -0.05
	}

	ai_weight = {
		factor = 5000
	}
}

tr_versatility_operational_proxies = {
	possible = {
		has_tradition = tr_versatility_spatial_optimization
	}

	modifier = {
		pop_resettlement_cost_mult = -0.33
	}

	ai_weight = {
		factor = 1000
	}
}