crew_quarters = {
	icon = "GFX_spaceport_module_crew_quarters"
	construction_days = 180

	initial = yes

	resources = {
		category = starbase_buildings
		cost = {
			alloys = 50
		}

		upkeep = {
			energy = 1
		}
	}

	orbit_modifier = {
		ship_orbit_upkeep_mult = -0.25
	}

	

	ai_weight = {
		weight = 100 #use same weight here - ai weighting is done in starbase_types.txt
	}
}

hydroponics_bay = {
	icon = "GFX_spaceport_module_hydroponic_farms"
	construction_days = 180

	potential = {
		exists = owner
		owner = { has_technology = "tech_hydroponics" }
	}

	possible = {
		exists = owner
		OR = {
			owner = { is_ai = no }
			owner = { country_uses_food = yes }
		}
	}

	resources = {
		category = starbase_buildings
		cost = {
			alloys = 50
		}

		produces = {
			food = 10
		}

		upkeep = {
			energy = 1
		}
	}

	show_in_tech = "tech_hydroponics"

	

	ai_weight = {
		weight = 100 #use same weight here - ai weighting is done in starbase_types.txt
	}
}

resource_silo = {
	icon = "GFX_spaceport_module_resource_silo"
	construction_days = 180

	resources = {
		category = starbase_buildings
		cost = {
			alloys = 50
		}
	}

	triggered_country_modifier = {
		potential = {
			exists = owner
			owner = {
				NOT = { has_technology = tech_construction_templates }
			}
		}
		country_resource_max_add = 5000
	}

	triggered_country_modifier = {
		potential = {
			exists = owner
			owner = {
				has_technology = tech_construction_templates
			}
		}
		country_resource_max_add = 10000
	}

	

	ai_weight = {
		weight = 100 #use same weight here - ai weighting is done in starbase_types.txt
	}
}

nebula_refinery = {
	icon = "GFX_spaceport_nebula_refinery"
	construction_days = 360

	potential = {
		exists = owner
		owner = { has_technology = tech_space_mining_1 }
	}

	possible = {
		custom_tooltip = {
			fail_text = "requires_starport_or_ring"
			OR = {
				has_starbase_size >= starbase_starport
				is_orbital_ring = yes
			}
		}
		custom_tooltip = {
			fail_text = "requires_nebula"
			star = { is_inside_nebula = yes }
		}
	}

	resources = {
		category = starbase_buildings
		cost = {
			alloys = 100
		}

		produces = {
			minerals = 10
		}

		produces = {
			trigger = {
				exists = owner
				owner = { has_technology = tech_mine_exotic_gases }
			}
			exotic_gases = 1
		}

		upkeep = {
			energy = 2
		}
	}

	show_in_tech = "tech_space_mining_1"

	

	ai_weight = {
		weight = 100 #use same weight here - ai weighting is done in starbase_types.txt
	}
}

listening_post = {
	icon = "GFX_spaceport_module_navigators_guild"
	construction_days = 360

	resources = {
		category = starbase_buildings
		cost = {
			alloys = 100
		}

		upkeep = {
			energy = 2
		}
	}

	potential = {
		exists = owner
		owner = { has_technology = tech_sensors_2 }
		is_orbital_ring = no
	}

	station_modifier = {
		ship_sensor_range_add = 2
		ship_hyperlane_range_add = 4
	}

	triggered_station_modifier = {
		potential = {
			hidden_trigger = { exists = this }
			exists = owner
			owner = {
				is_galactic_community_member = yes
			}
			OR = {
				is_active_resolution = "resolution_galacticstudies_astral_studies_network"
				is_active_resolution = "resolution_galacticstudies_advanced_xenostudies"
				is_active_resolution = "resolution_galacticstudies_ethical_guideline_refactoring"
				is_active_resolution = "resolution_galacticstudies_extradimensional_experimentation"
			}
		}

		ship_sensor_range_add = 1
		ship_hyperlane_range_add = 1
	}

	

	ai_weight = {
		weight = 100 #use same weight here - ai weighting is done in starbase_types.txt
	}

	show_in_tech = "tech_sensors_2"
}

offworld_trading_company = {
	icon = "GFX_starbase_offworld_trading_company"
	construction_days = 360

	potential = {
		exists = owner
		owner = {
			has_technology = tech_space_trading
			is_gestalt = no
		}
		is_orbital_ring = no
	}

	possible = {
		custom_tooltip = {
			fail_text = "requires_starport"
			has_starbase_size >= starbase_starport
		}
		OR = {
			has_starbase_module = trading_hub
			starbase_buildable_is_in_queue_before = {
				first = trading_hub
				second = offworld_trading_company
			}
		}
	}

	resources = {
		category = starbase_buildings
		cost = {
			alloys = 100
		}
	}

	triggered_station_modifier = {
		potential = {
			hidden_trigger = { exists = this }
			has_starbase_module = trading_hub
		}
		trade_value_add = 2
		mult = value:num_starbase_modules_of_type|TYPE|trading_hub|
	}

	custom_tooltip = sm_offworld_trading_company_desc_modifier

	show_in_tech = "tech_space_trading"

	

	ai_weight = {
		weight = 100 #use same weight here - ai weighting is done in starbase_types.txt
		modifier = {
			factor = 0
			count_starbase_modules = {
				type = trading_hub
				count < 3
			}
		}
	}
}

fleet_academy = {
	icon = "GFX_spaceport_module_fleet_academy"
	construction_days = 360

	potential = {
		exists = owner
		owner = { has_technology = tech_interstellar_fleet_traditions }

		is_orbital_ring = no
	}

	possible = {
		OR = {
			has_starbase_module = shipyard
			starbase_buildable_is_in_queue_before = {
				first = shipyard
				second = fleet_academy
			}
		}
	}

	ship_modifier = {
		ship_starting_experience_add = 100
	}

	resources = {
		category = starbase_buildings
		cost = {
			alloys = 100
		}

		upkeep = {
			energy = 2
		}
	}

	show_in_tech = "tech_interstellar_fleet_traditions"

	

	ai_weight = {
		weight = 100 #use same weight here - ai weighting is done in starbase_types.txt
		modifier = {
			factor = 0
			count_starbase_modules = {
				type = shipyard
				count < 2
			}
		}
	}
}

naval_logistics_office = {
	icon = "GFX_starbase_naval_logistics"
	construction_days = 360

	potential = {
		exists = owner
		owner = { has_technology = tech_interstellar_fleet_traditions }
	}

	possible = {
		custom_tooltip = {
			fail_text = "requires_anchorage"
			OR = {
				has_starbase_module = anchorage
				starbase_buildable_is_in_queue_before = {
					first = anchorage
					second = naval_logistics_office
				}
				has_starbase_module = orbital_ring_anchorage
				starbase_buildable_is_in_queue_before = {
					first = orbital_ring_anchorage
					second = naval_logistics_office
				}
			}
		}
	}

	resources = {
		category = starbase_buildings
		cost = {
			alloys = 100
		}

		upkeep = {
			energy = 2
		}
	}

	custom_tooltip = sm_naval_logistics_office_desc_modifier
	show_in_tech = "tech_interstellar_fleet_traditions"

	

	ai_weight = {
		weight = 100 #use same weight here - ai weighting is done in starbase_types.txt
		modifier = {
			factor = 0
			count_starbase_modules = {
				type = anchorage
				count < 1
			}
		}
	}
}

titan_yards = {
	icon = "GFX_spaceport_module_titan_assembly_yard"
	construction_days = 720

	potential = {
		exists = owner
		owner = { has_technology = tech_titans }
		is_orbital_ring = no
	}

	possible = {
		custom_tooltip = {
			fail_text = "requires_citadel"
			has_starbase_size >= starbase_citadel
		}
		OR = {
			has_starbase_module = shipyard
			starbase_buildable_is_in_queue_before = {
				first = shipyard
				second = titan_yards
			}
		}
	}

	resources = {
		category = starbase_buildings
		cost = {
			alloys = 500
		}

		upkeep = {
			energy = 10
		}
	}

	custom_tooltip = sm_titan_yards_desc_modifier



	ai_weight = {
		weight = 100 #use same weight here - ai weighting is done in starbase_types.txt
		modifier = {
			factor = 0
			count_starbase_modules = {
				type = shipyard
				count < 2
			}
		}
		modifier = {
			factor = 0
			owner = {
				any_owned_starbase = {
					NOT = { is_same_value = root }
					has_starbase_building = titan_yards
				}
			}
		}
	}
}

colossus_yards = {
	icon = "GFX_spaceport_module_colossus_assembly_yard"
	construction_days = 720

	potential = {
		exists = owner
		owner = {
			OR = {
				has_technology = tech_colossus
				has_technology = tech_juggernaut
				has_technology = tech_btc_1 # star-eater
			}
		}
		is_orbital_ring = no
	}

	possible = {
		custom_tooltip = {
			fail_text = "requires_citadel"
			has_starbase_size >= starbase_citadel
		}
		OR = {
			has_starbase_module = shipyard
			starbase_buildable_is_in_queue_before = {
				first = shipyard
				second = colossus_yards
			}
		}
	}

	resources = {
		category = starbase_buildings
		cost = {
			alloys = 1000
		}

		upkeep = {
			energy = 20
		}
	}

	custom_tooltip = sm_colossus_yards_desc_modifier
	show_in_tech = "tech_colossus"
	show_in_tech = "tech_juggernaut"

	

	ai_weight = {
		weight = 100 #use same weight here - ai weighting is done in starbase_types.txt
		modifier = {
			factor = 0
			count_starbase_modules = {
				type = shipyard
				count < 2
			}
		}
		modifier = {
			factor = 0
			owner = {
				any_owned_starbase = {
					NOT = { is_same_value = root }
					has_starbase_building = colossus_yards
				}
			}
		}
	}
}

black_hole_observatory = {
	icon = "GFX_spaceport_module_observatory"
	construction_days = 360

	potential = {
		exists = owner
		owner = { has_technology = tech_sensors_3 }
	}

	possible = {
		custom_tooltip = {
			fail_text = "requires_starport_or_ring"
			OR = {
				has_starbase_size >= starbase_starport
				is_orbital_ring = yes
			}
		}
		custom_tooltip = {
			fail_text = "requires_black_hole"
			star = { is_star_class = sc_black_hole }
		}
	}

	resources = {
		category = starbase_buildings
		cost = {
			alloys = 100
		}

		produces = {
			physics_research = 15
		}
		produces = {
			trigger = {
				exists = owner
				owner = {
					is_galactic_community_member = yes
				}
				OR = {
					is_active_resolution = "resolution_galacticstudies_astral_studies_network"
					is_active_resolution = "resolution_galacticstudies_advanced_xenostudies"
					is_active_resolution = "resolution_galacticstudies_ethical_guideline_refactoring"
					is_active_resolution = "resolution_galacticstudies_extradimensional_experimentation"
				}
			}
			physics_research = 15
		}
		produces = {
			trigger = {
				exists = owner
				owner = { has_technology = tech_mine_dark_matter }
			}
			sr_dark_matter = 1
		}

		upkeep = {
			energy = 2
		}
	}

	show_in_tech = "tech_sensors_3"

	

	ai_weight = {
		weight = 100 #use same weight here - ai weighting is done in starbase_types.txt
	}
}

target_uplink_computer = {
	icon = "GFX_spaceport_synchronized_defenses"
	construction_days = 360

	potential = {
		exists = owner
	}

	possible = {
		custom_tooltip = {
			fail_text = "requires_starport_or_ring"
			OR = {
				has_starbase_size >= starbase_starport
				is_orbital_ring = yes
			}
		}
	}

	resources = {
		category = starbase_buildings
		cost = {
			alloys = 100
		}

		upkeep = {
			energy = 2
		}
	}

	station_modifier = {
		ship_weapon_range_mult = 0.50
	}

	defense_platform_modifier = {
		ship_weapon_range_mult = 0.50
	}

	

	ai_weight = {
		weight = 100 #use same weight here - ai weighting is done in starbase_types.txt
	}
}

defense_grid = {
	icon = "GFX_starbase_defense_grid_supercomputer"
	construction_days = 360

	potential = {
		exists = owner
		owner = { has_technology = tech_synchronized_defences }
	}

	possible = {
		custom_tooltip = {
			fail_text = "requires_starport_or_ring"
			OR = {
				has_starbase_size >= starbase_starport
				is_orbital_ring = yes
			}
		}
	}

	resources = {
		category = starbase_buildings
		cost = {
			alloys = 150
		}

		upkeep = {
			energy = 2
		}
	}

	station_modifier = {
		starbase_defense_platform_capacity_add = 8
	}

	show_in_tech = "tech_synchronized_defences"

	

	ai_weight = {
		weight = 100 #use same weight here - ai weighting is done in starbase_types.txt
	}
}

deep_space_black_site = {
	icon = "GFX_starbase_deep_space_black_site"
	construction_days = 360

	potential = {
		exists = owner
		owner = {
			has_technology = tech_living_state
			NOT = { has_ethic = ethic_gestalt_consciousness }
		}
		is_orbital_ring = no
	}

	possible = {
		custom_tooltip = {
			fail_text = "requires_starport"
			has_starbase_size >= starbase_starport
		}
		custom_tooltip = {
			fail_text = "requires_colonized_planet"
			solar_system = {
				any_system_colony = {
					is_owned_by = from
				}
			}
		}
	}

	resources = {
		category = starbase_buildings
		cost = {
			alloys = 100
		}

		produces = {
			unity = 1
		}

		upkeep = {
			energy = 2
		}
	}

	system_modifier = {
		pop_government_ethic_attraction = 0.25
		planet_stability_add = 5
	}

	show_in_tech = "tech_living_state"

	

	ai_weight = {
		weight = 100 #use same weight here - ai weighting is done in starbase_types.txt
	}
}

curator_think_tank = {
	icon = "GFX_starbase_curator_think_tank"
	construction_days = 360

	potential = {
		exists = owner
		owner = {
			is_homicidal = no
			has_country_flag = curator_intro
		}
		is_orbital_ring = no
	}

	possible = {
		custom_tooltip = {
			fail_text = "requires_starport"
			has_starbase_size >= starbase_starport
		}
		custom_tooltip = {
			fail_text = "requires_curator"
			solar_system = {
				has_star_flag = enclave
				any_fleet_in_system = {
					exists = owner
					owner = {
						has_country_flag = curator_enclave_country
					}
				}
			}
		}
		custom_tooltip = {
			fail_text = "requires_curator_agreement"
			solar_system = {
				has_star_flag = enclave
				any_fleet_in_system = {
					exists = owner
					owner = {
						has_country_flag = curator_enclave_country
						has_country_flag = think_tank@root.owner
					}
				}
			}
		}
	}

	resources = {
		category = starbase_buildings
		cost = {
			alloys = 100
		}

		produces = {
			physics_research = 5
			society_research = 5
			engineering_research = 5
		}

		produces = {
			trigger = {
				exists = owner
				owner = {
					is_galactic_community_member = yes
				}
				OR = {
					is_active_resolution = "resolution_galacticstudies_advanced_xenostudies"
					is_active_resolution = "resolution_galacticstudies_ethical_guideline_refactoring"
					is_active_resolution = "resolution_galacticstudies_extradimensional_experimentation"
				}
			}
			physics_research = 5
			society_research = 5
			engineering_research = 5
		}

		upkeep = {
			energy = 2
		}
	}

	

	ai_weight = {
		weight = 100 #use same weight here - ai weighting is done in starbase_types.txt
	}
}

art_college = {
	icon = "GFX_starbase_artist_college"
	construction_days = 360

	potential = {
		exists = owner
		owner = {
			is_homicidal = no
			has_country_flag = enclave_artist_encountered
		}
		is_orbital_ring = no
	}

	possible = {
		custom_tooltip = {
			fail_text = "requires_starport"
			has_starbase_size >= starbase_starport
		}
		custom_tooltip = {
			fail_text = "requires_artisans"
			solar_system = {
				has_star_flag = enclave
				any_fleet_in_system = {
					exists = owner
					owner = {
						is_same_value = event_target:artist_enclave_country
					}
				}
			}
		}
		custom_tooltip = {
			fail_text = "requires_artist_agreement"
			solar_system = {
				has_star_flag = enclave
				any_fleet_in_system = {
					exists = owner
					owner = {
						is_same_value = event_target:artist_enclave_country
						has_country_flag = art_college@root.owner
					}
				}
			}
		}
	}

	resources = {
		category = starbase_buildings
		cost = {
			alloys = 100
		}

		produces = {
			unity = 10
		}

		produces = {
			trigger = {
				exists = owner
				owner = {
					is_galactic_community_member = yes
				}
				OR = {
					is_active_resolution = "resolution_galacticstudies_advanced_xenostudies"
					is_active_resolution = "resolution_galacticstudies_ethical_guideline_refactoring"
					is_active_resolution = "resolution_galacticstudies_extradimensional_experimentation"
				}
			}
			unity = 10
		}

		upkeep = {
			energy = 2
		}
	}

	

	ai_weight = {
		weight = 100 #use same weight here - ai weighting is done in starbase_types.txt
	}
}

salvager_workshop = {
	icon = "GFX_starbase_salvager_workshop"
	construction_days = 360

	potential = {
		exists = owner
		owner = {
			is_homicidal = no
			has_country_flag = salvager_enclave_diplomacy_engaged
		}
		is_orbital_ring = no
	}

	possible = {
		custom_tooltip = {
			fail_text = "requires_starport"
			has_starbase_size >= starbase_starport
		}
		custom_tooltip = {
			fail_text = "requires_salvager_enclave"
			solar_system = {
				has_star_flag = enclave
				any_fleet_in_system = {
					exists = owner
					owner = {
						has_country_flag = salvager_enclave_country
					}
				}
			}
		}
		custom_tooltip = {
			fail_text = "requires_salvager_agreement"
			solar_system = {
				has_star_flag = enclave
				any_fleet_in_system = {
					exists = owner
					owner = {
						has_country_flag = salvager_enclave_country
						has_country_flag = salvage_works@root.owner
					}
				}
			}
		}
	}

	resources = {
		category = starbase_buildings
		cost = {
			alloys = 100
		}
		upkeep = {
			energy = 3
		}

		produces = {
			trigger = {
				exists = owner
				owner = {
					is_galactic_community_member = yes
				}
				OR = {
					is_active_resolution = "resolution_galacticstudies_advanced_xenostudies"
					is_active_resolution = "resolution_galacticstudies_ethical_guideline_refactoring"
					is_active_resolution = "resolution_galacticstudies_extradimensional_experimentation"
				}
			}
			alloys = 5
		}
	}

	orbit_modifier = {
		ship_orbit_upkeep_mult = -0.2
		ship_repair_hull_mult = 0.3
		ship_repair_armor_mult = 0.3
	}

	

	ai_weight = {
		weight = 150
	}
}

shroud_beacon = {
	icon = "GFX_starbase_shroud_beacon"
	construction_days = 720

	potential = {
		exists = owner
		owner = {
			is_homicidal = no
			has_country_flag = shroudwalker_enclave_diplomacy_engaged
			has_country_flag = shroudwalker_enclave_bought_shroud_beacon
		}
		is_orbital_ring = no
	}

	possible = {
		custom_tooltip = {
			fail_text = "requires_starport"
			has_starbase_size >= starbase_starport
		}
		custom_tooltip = {
			fail_text = "requires_not_shroudwalker_system"
			solar_system = {
				NOR = {
					has_star_flag = shroudwalker_enclave_system
					any_fleet_in_system = {
						exists = owner
						owner = { has_country_flag = shroudwalker_enclave_country }
					}
				}
			}
		}
		custom_tooltip = {
			fail_text = "requires_no_bypass"
			solar_system = {
				if = {
					limit = {
						NOT = { has_star_flag = spawned_shroud_tunnel }
					}
					has_natural_wormhole = no
				}
			}
		}
		custom_tooltip = {
			fail_text = "limit_one_shroud_tunnel"
			OR = {
				owner = {
					NOT = {
						any_system_within_border = {
							OR = {
								has_star_flag = spawned_shroud_tunnel
								starbase = { has_starbase_building = shroud_beacon }
							}
						}
					}
				}
				AND = {
					solar_system = { has_star_flag = spawned_shroud_tunnel }
					NOT = { has_starbase_building = shroud_beacon }
				}
			}
		}
		custom_tooltip = {
			fail_text = "requires_shroudwalker_agreement"
			OR = {
				AND = {
					exists = event_target:shroudwalker_enclave_country
					event_target:shroudwalker_enclave_country = {
						has_country_flag = shroud_beacon@root.owner
					}
				}
				owner = { has_country_flag = shroud_beacon }
			}
		}
	}

	resources = {
		category = starbase_buildings
		cost = {
			alloys = 500
			rare_crystals = 25
		}
		upkeep = {
			energy = 3
		}
	}

	

	ai_weight = {
		weight = 50
		#Don't build nextdoor to the Shroudwalkers
		modifier = {
			factor = 0
			solar_system = {
				any_neighbor_system = {
					any_fleet_in_system = {
						exists = owner
						owner = { has_country_flag = shroudwalker_enclave_country }
					}
				}
			}
		}
	}

	on_finished = {
		if = {
			limit = {
				solar_system = { NOT = { has_star_flag = spawned_shroud_tunnel } }
			}
			shroudwalker_enclave_starbase_create_shroud_tunnel = yes
		}
		fleet.owner = {
			country_event = { id = enclave.4200 }
			country_event = { id = origin.5625 }
		}
	}

	on_destroyed = {
		fleet.owner = {
			country_event = { id = enclave.6015 }
		}
	}
}

#################
# AURA BUILDINGS
#################

communications_jammer = {
	icon = "GFX_starbase_communication_jammer"
	construction_days = 180

	possible = {
		custom_tooltip = {
			fail_text = "requires_starport_or_ring"
			OR = {
				has_starbase_size >= starbase_starport
				is_orbital_ring = yes
			}
		}
		solar_system = {
			count_starbase_buildings = {
				type = communications_jammer
				count < 1
				include_being_constructed = yes
			}
		}
	}

	abort_construction_trigger = {
		solar_system = {
			count_starbase_buildings = {
				type = communications_jammer
				count > 1
				include_being_constructed = yes
			}
		}
	}

	resources = {
		category = starbase_buildings
		cost = {
			alloys = 50
		}

		upkeep = {
			energy = 1
		}
	}

	equipped_component = "STARBASE_AURA_COMMUNICATIONS_JAMMER"

	

	ai_weight = {
		weight = 100 #use same weight here - ai weighting is done in starbase_types.txt
	}
}

disruption_field = {
	icon = "GFX_spaceport_module_orbital_mind_control_lazer"
	construction_days = 180

	possible = {
		custom_tooltip = {
			fail_text = "requires_starport_or_ring"
			OR = {
				has_starbase_size >= starbase_starport
				is_orbital_ring = yes
			}
		}
		solar_system = {
			count_starbase_buildings = {
				type = disruption_field
				count < 1
				include_being_constructed = yes
			}
		}
	}

	abort_construction_trigger = {
		solar_system = {
			count_starbase_buildings = {
				type = communications_jammer
				count > 1
				include_being_constructed = yes
			}
		}
	}

	resources = {
		category = starbase_buildings
		cost = {
			alloys = 100
		}

		upkeep = {
			energy = 2
		}
	}

	equipped_component = "STARBASE_AURA_DISRUPTION_FIELD"

	

	ai_weight = {
		weight = 100 #use same weight here - ai weighting is done in starbase_types.txt
	}
}

warp_fluctuator = {
	icon = "GFX_spaceport_module_atmospheric_manipulator"
	construction_days = 180

	potential = {
		exists = owner
		owner = {
			has_technology = tech_interstellar_economics
			is_gestalt = no
		}
		is_orbital_ring = no
	}

	possible = {
		custom_tooltip = {
			fail_text = "requires_starport"
			has_starbase_size >= starbase_starport
		}
	}

	resources = {
		category = starbase_buildings
		cost = {
			alloys = 100
		}

		upkeep = {
			energy = 2
		}
	}

	station_modifier = {
		starbase_trade_collection_range_add = 1
	}

	show_in_tech = "tech_interstellar_economics"

	

	ai_weight = {
		weight = 100 #use same weight here - ai weighting is done in starbase_types.txt
	}
}

transit_hub = {
	icon = "GFX_spaceport_module_pioneering_terminal"
	construction_days = 180

	potential = {
		exists = owner
		owner = {
			has_technology = tech_hyper_drive_2
		}
	}

	possible = {
		custom_tooltip = {
			fail_text = "requires_starport_or_ring"
			OR = {
				has_starbase_size >= starbase_starport
				is_orbital_ring = yes
			}
		}
		custom_tooltip = {
			fail_text = "requires_colonized_planet"
			solar_system = {
				any_system_colony = {
					is_owned_by = from
				}
			}
		}
		solar_system = {
			count_starbase_buildings = {
				type = transit_hub
				count < 1
				include_being_constructed = yes
			}
		}
	}

	abort_construction_trigger = {
		solar_system = {
			count_starbase_buildings = {
				type = communications_jammer
				count > 1
				include_being_constructed = yes
			}
		}
	}

	resources = {
		category = starbase_buildings
		cost = {
			alloys = 100
		}

		upkeep = {
			energy = 3
		}
	}

	system_modifier = {
		planet_resettlement_unemployed_mult = 1.00

		show_only_custom_tooltip = no
		custom_tooltip = "sm_transit_hub_migrate_effect_desc"
	}

	show_in_tech = "tech_hyper_drive_2"

	

	ai_weight = {
		weight = 100
		modifier = {
			factor = 0
			NOT = {
				solar_system = {
					any_system_colony = {
						exists = owner
						owner = { is_country_type = default }
					}
				}
			}
		}
	}
}

command_center = {
	icon = "GFX_starbase_command_center"
	construction_days = 360

	potential = {
		exists = owner
		owner = { has_technology = tech_command_matrix }
	}

	possible = {
		custom_tooltip = {
			fail_text = "requires_starfortress_or_ring_3"
			OR = {
				has_starbase_size >= starbase_starfortress
				has_starbase_size >= orbital_ring_tier_3
			}
		}
		solar_system = {
			count_starbase_buildings = {
				type = command_center
				count < 1
				include_being_constructed = yes
			}
		}
	}

	abort_construction_trigger = {
		solar_system = {
			count_starbase_buildings = {
				type = communications_jammer
				count > 1
				include_being_constructed = yes
			}
		}
	}

	resources = {
		category = starbase_buildings
		cost = {
			alloys = 250
		}

		upkeep = {
			energy = 5
		}
	}

	equipped_component = "STARBASE_AURA_COMMAND_CENTER"
	show_in_tech = "tech_command_matrix"

	

	ai_weight = {
		weight = 100 #use same weight here - ai weighting is done in starbase_types.txt
	}
}

#offworld_trading_company_gestalt = {
#	icon = "GFX_starbase_offworld_trading_company"
#	construction_days = 360
#
#	potential = {
#		exists = owner
#		owner = {
#			has_technology = tech_space_trading
#			has_ethic = ethic_gestalt_consciousness
#		}
#	}
#
#	possible = {
#		custom_tooltip = {
#			fail_text = "requires_starport"
#			has_starbase_size >= starbase_starport
#		}
#		has_starbase_module = trading_hub_gestalt
#	}
#
#	cost = {
#		alloys = 100
#	}
#
#	custom_tooltip = sm_offworld_trading_company_gestalt_desc_modifier
#	show_in_tech = "tech_space_trading"
#	#show_tech_unlock_if = { has_ethic = auth_machine_intelligence }
#
#	
#
#	ai_weight = {
#		weight = 200
#		modifier = {
#			factor = 0
#			count_starbase_modules = {
#				type = trading_hub
#				count < 3
#			}
#		}
#	}
#}

trader_proxy_office = {
	icon = "GFX_starbase_offworld_trading_company"
	construction_days = 360

	potential = {
		exists = owner
		owner = {
			is_homicidal = no
			is_gestalt = no
			has_country_flag = has_market_access
		}
		solar_system = {
			any_fleet_in_system = {
				has_fleet_flag = trader_enclave_station
			}
		}
		is_orbital_ring = no
	}

	possible = {
		custom_tooltip = {
			fail_text = "requires_starport"
			has_starbase_size >= starbase_starport
		}
		NOT = { has_starbase_building = trader_proxy_office }

		custom_tooltip = {
			fail_text = "requires_trader_enclave"
			solar_system = {
				OR = {
					any_system_colony = {
						exists = owner
						owner = { is_country_type = default }
					}
					AND = {
						has_star_flag = enclave
						any_fleet_in_system = {
							exists = owner
							owner = {
								has_country_flag = trader_enclave_country
							}
						}
					}
				}
			}
		}
	}

	resources = {
		category = starbase_buildings
		cost = {
			alloys = 100
		}
	}

	country_modifier = {
		country_trade_fee = -0.05
	}

	triggered_station_modifier = {
		potential = {
			hidden_trigger = { exists = this }

			exists = owner
			owner = {
				is_galactic_community_member = yes
			}
			OR = {
				is_active_resolution = "resolution_galacticstudies_advanced_xenostudies"
				is_active_resolution = "resolution_galacticstudies_ethical_guideline_refactoring"
				is_active_resolution = "resolution_galacticstudies_extradimensional_experimentation"
			}
		}

		trade_value_add = 5
	}

	

	ai_weight = {
		weight = 100 #use same weight here - ai weighting is done in starbase_types.txt
		modifier = {
			factor = 0
			OR = {
				solar_system = { NOT = { has_star_flag = guardians_traders_system } }
				has_starbase_building = trader_proxy_office
				solar_system = {
					any_fleet_in_system = {
						has_fleet_flag = trader_enclave_station
					}
				}
			}
		}
	}
}

dragon_hatchery = {
	icon = "GFX_starbase_dragon_hatchery"
	construction_days = 720

	potential = {
		exists = owner
		owner = {
			is_dragon_breeder_country = yes
		}
	}

	possible = {
		custom_tooltip = {
			fail_text = "requires_citadel"
			has_starbase_size >= starbase_citadel
		}
		OR = {
			has_starbase_module = shipyard
			starbase_buildable_is_in_queue_before = {
				first = shipyard
				second = dragon_hatchery
			}
		}
	}

	resources = {
		category = starbase_buildings
		cost = {
			alloys = 750
		}
		upkeep = {
			energy = 10
		}
	}

	custom_tooltip = dragon_hatchery_tooltip

	

	ai_weight = {
		weight = 100 #use same weight here - ai weighting is done in starbase_types.txt
		modifier = {
			factor = 0
			owner = {
				count_owned_starbase = {
					count >= 1
					limit = {
						has_starbase_building = dragon_hatchery
					}
				}
			}
		}
	}
}

ice_mining_station = {
	icon = "GFX_starbase_ice_mining_station"
	construction_days = 360

	potential = {
		exists = owner
		owner = {
			has_ascension_perk = ap_hydrocentric
		}
	}

	possible = {
		custom_tooltip = {
			fail_text = "requires_starport"
			has_starbase_size >= starbase_starport
		}

		custom_tooltip = {
			fail_text = requires_ice_source
			solar_system = {
				OR = {
					has_planet_class = pc_ice_asteroid
					has_planet_class = pc_frozen
				}
			}
		}
	}

	resources = {
		category = starbase_buildings
		cost = {
			alloys = 100
		}
	}

	custom_tooltip = ice_mining_station_tooltip

	system_modifier = {
		station_gatherers_produces_mult = 0.15
	}

	

	ai_weight = {
		weight = 100 #use same weight here - ai weighting is done in starbase_types.txt
		modifier = {
			factor = 0
			owner = {
				count_owned_starbase = {
					count >= 2
					limit = {
						has_starbase_building = ice_mining_station
					}
				}
			}
		}
	}
}

offspring_outlook = {
	icon = "GFX_offspring_aura_sb"
	construction_days = 180

	potential = {
		exists = owner
		owner = {
			has_origin = origin_progenitor_hive
		}
	}

	possible = {
		custom_tooltip = {
			fail_text = "requires_starport"
			has_starbase_size >= starbase_starport
		}
	}

	resources = {
		category = starbase_buildings
		cost = {
			alloys = 150
		}

		upkeep = {
			energy = 2
		}
	}
	equipped_component = "STARBASE_OFFSPRING_OUTLOOK"

	

	ai_weight = {
		weight = 10
	}
}

mercenary_garrison = {
	icon = "GFX_starbase_mercenary_garrison"
	construction_days = 360

	potential = {
		exists = owner
		owner = {
			is_homicidal = no
			has_country_flag = mercenary_enclave_diplomacy_engaged
		}
		is_orbital_ring = no
	}

	possible = {
		custom_tooltip = {
			fail_text = "requires_starport"
			has_starbase_size >= starbase_starport
		}
		custom_tooltip = {
			fail_text = "requires_mercenary_agreement"
			owner = {
				has_country_flag = mercenary_enclave_bought_mercenary_garrison
			}
		}
		solar_system = {
			count_starbase_buildings = {
				type = mercenary_garrison
				count < 1
				include_being_constructed = yes
			}
		}
	}

	abort_construction_trigger = {
		solar_system = {
			count_starbase_buildings = {
				type = mercenary_garrison
				count > 1
				include_being_constructed = yes
			}
		}
	}

	equipped_component = "STARBASE_AURA_MERCENARY_GARRISON"

	triggered_country_modifier = {
		potential = {
			hidden_trigger = { exists = this }

			exists = owner
			owner = {
				is_galactic_community_member = yes
			}
			OR = {
				is_active_resolution = "resolution_galacticstudies_advanced_xenostudies"
				is_active_resolution = "resolution_galacticstudies_ethical_guideline_refactoring"
				is_active_resolution = "resolution_galacticstudies_extradimensional_experimentation"
			}
		}

		country_naval_cap_add = 5
	}

	resources = {
		category = starbase_buildings
		cost = {
			alloys = 100
		}

		upkeep = {
			energy = 20
		}
	}

	

	ai_weight = {
		weight = 50
	}
}

cordyceptic_reanimation_facility = {
	icon = "GFX_cordyceptic_reanimation_facility"
	construction_days = 180

	potential = {
		exists = owner
		owner = { has_valid_civic = civic_hive_cordyceptic_drones }
	}

	possible = {
		custom_tooltip = {
			fail_text = "requires_tiyanki_spawning_system"
			star.solar_system = { 
				OR = {
					has_star_flag = tiyanki_graveyard_system
					has_star_flag = tiyanki_spawn_system
					has_star_flag = amoeba_home_system
				}
			}
		}
	}

	resources = {
		category = starbase_buildings
		cost = {
			alloys = 100
		}

		upkeep = {
			food = 10
		}
	}

	custom_tooltip = sm_cordyceptic_reanimation_facility_desc_modifier
	on_finished = {
		starbase_event = { id = necroids.305 days = 1800 }
	}

	ai_build_at_chokepoint = yes
	ai_build_outside_chokepoint = yes
	ai_weight = {
		weight = 100 #use same weight here - ai weighting is done in starbase_types.txt
	}
}
