buffer = {
	hidden = yes
	use_for_ai_budget = yes
}

country = {
	hidden = yes
	use_for_ai_budget = yes
	generate_mult_modifiers = {
		produces
		cost
	}
	#modifier category: economic_unit is fine
}

# Base income of country
country_base = {
	parent = country
	generate_add_modifiers = {
		produces
	}
	modifier_category = country
}

trade = {
	use_for_ai_budget = yes
}

trade_routes = {
	parent = trade
}

situations = {
	parent = country
}

resolutions = {
	parent = country
	use_for_ai_budget = yes
	generate_mult_modifiers = {
		cost
	}
}

edicts = {
	use_for_ai_budget = yes
	parent = country
	ai_use_parent_for_resources_upkeep = {
		energy
		food
	}
	generate_mult_modifiers = {
		cost
		upkeep
	}
	modifier_category = country
}

rare_edicts = {
	use_for_ai_budget = no
	parent = edicts
}

ship_edicts = {
	parent = rare_edicts
	use_for_ai_budget = no
}

campaigns = {
	use_for_ai_budget = no
	parent = edicts
}

decisions = {
	use_for_ai_budget = yes
	parent = country
}

megastructures = {
	use_for_ai_budget = yes
	ai_use_parent_for_resources_upkeep = {
		energy
		consumer_goods
	}
	parent = country
	modifier_category = megastructure
}

megastructures_habitat = {
	use_for_ai_budget = yes
	parent = megastructures
	generate_mult_modifiers = {
		cost
	}
	modifier_category = megastructure
}

megastructures_hyper_relay = {
	parent = megastructures
	use_for_ai_budget = yes
	ai_use_parent_for_resources_upkeep = {
		energy
		consumer_goods
	}
	generate_add_modifiers = {
		upkeep
	}
	modifier_category = megastructure
}

ships = {
	use_for_ai_budget = yes
	generate_mult_modifiers = {
		upkeep
	}

	ai_use_parent_for_resources_upkeep = {
		energy
	}

	parent = country
	modifier_category = ship

	triggered_cost_modifier = {
		key = starbase_shipyard_build
		use_parent_icon = yes

		modifier_types = {
			mult
		}
	}

	triggered_cost_modifier = {
		key = gdf_ship
		use_parent_icon = yes
		modifier_types = {
			mult
		}

		trigger = {
			is_scope_valid = yes
			has_ship_owner_type = galactic_community
		}
	}

	triggered_cost_modifier = {
		key = ship_corvette
		use_parent_icon = yes
		modifier_types = {
			mult
		}

		trigger = {
			is_scope_valid = yes
			OR = {
				is_ship_size = corvette
				is_ship_size = offspring_corvette
				is_ship_size = frigate
			}
		}
	}

	triggered_cost_modifier = {
		key = ship_destroyer
		use_parent_icon = yes
		modifier_types = {
			mult
		}

		trigger = {
			is_scope_valid = yes
			OR = {
				is_ship_size = destroyer
				is_ship_size = offspring_destroyer
			}
		}
	}

	triggered_cost_modifier = {
		key = ship_cruiser
		use_parent_icon = yes
		modifier_types = {
			mult
		}

		trigger = {
			is_scope_valid = yes
			OR = {
				is_ship_size = cruiser
				is_ship_size = offspring_cruiser
			}
		}
	}

	triggered_cost_modifier = {
		key = ship_battleship
		use_parent_icon = yes
		modifier_types = {
			mult
		}

		trigger = {
			is_scope_valid = yes
			OR = {
				is_ship_size = battleship
				is_ship_size = offspring_battleship
			}
		}
	}

	triggered_cost_modifier = {
		key = ship_military_station_small
		use_parent_icon = yes
		modifier_types = {
			mult
		}

		trigger = {
			is_scope_valid = yes
			is_ship_size = military_station_small
		}
	}

	triggered_upkeep_modifier = {
		key = ship_military_station_small
		use_parent_icon = yes
		modifier_types = {
			mult
		}

		trigger = {
			is_scope_valid = yes
			is_ship_size = military_station_small
		}
	}

	triggered_cost_modifier = {
		key = ship_science
		use_parent_icon = yes
		modifier_types = {
			mult
		}

		trigger = {
			is_scope_valid = yes
			is_ship_class = shipclass_science_ship
		}
	}

	triggered_cost_modifier = {
		key = ship_military
		use_parent_icon = yes
		modifier_types = {
			mult
		}

		trigger = {
			is_scope_valid = yes
			OR = {
				is_ship_class = shipclass_military
				is_ship_class = shipclass_military_special
			}
		}
	}

	triggered_upkeep_modifier = {
		key = ship_military
		use_parent_icon = yes
		modifier_types = {
			mult
		}

		trigger = {
			is_scope_valid = yes
			OR = {
				is_ship_class = shipclass_military
				is_ship_class = shipclass_military_special
			}
		}
	}
}

colonies = {
	use_for_ai_budget = yes
	ai_use_parent_for_resources_upkeep = {
		energy
	}
	modifier_category = ship

	triggered_cost_modifier = {
		key = ship_colonizer
		use_parent_icon = yes
		modifier_types = {
			mult
		}

		trigger = {
			is_scope_valid = yes #When called from ship designer the design is not valid yet.
			is_ship_class = shipclass_colonizer
		}
	}

	parent = ships
}

ship_components = {
	parent = ships
}

ship_sections = {
	parent = ships
}

ship_upgrades = {
	parent = ships
	use_for_ai_budget = yes
}

stations = {
	use_for_ai_budget = yes
	ai_use_parent_for_resources_upkeep = {
		energy
	}

	generate_mult_modifiers = {
		produces
	}

	parent = country
	modifier_category = deposit #it applies to the planet
}

station_gatherers = {
	parent = stations

	generate_mult_modifiers = {
		produces
		cost
	}
	modifier_category = deposit #it applies to the planet
}

station_researchers = {
	parent = stations

	generate_mult_modifiers = {
		produces
	}
	modifier_category = deposit #it applies to the planet
}

station_observers = {
	parent = stations
}

station_observer_missions = {
	parent = station_observers
}

starbases = {
	use_for_ai_budget = yes

	generate_mult_modifiers = {
		upkeep
	}
	ai_use_parent_for_resources_upkeep = {
		energy
	}

	parent = country
	modifier_category = starbase
}

starbase_stations = {
	parent = starbases
	modifier_category = starbase

	triggered_cost_modifier = {
		key = starbase_outpost
		modifier_types = {
			mult
		}

		trigger = {
			is_scope_valid = yes #When called from ship designer the design is not valid yet.
			OR = {
				is_ship_size = starbase_outpost
				is_ship_size = orbital_ring_tier_1 #TODOJM: Remove?
			}
		}
	}
}

starbase_constructions = {
	parent = starbases

	generate_mult_modifiers = {
		produces
	}
	modifier_category = starbase
}

starbase_buildings = {
	parent = starbase_constructions

	generate_mult_modifiers = {
		cost
	}
	modifier_category = starbase
}

starbase_modules = {
	parent = starbase_constructions

	generate_mult_modifiers = {
		cost
	}
	modifier_category = starbase
}

terraforming = {
	parent = country
	use_for_ai_budget = yes

	generate_mult_modifiers = {
		cost
	}
	modifier_category = planet
}

terraforming_ocean = {
	parent = terraforming

	generate_mult_modifiers = {
		cost
	}
	modifier_category = planet
}

planets = {
	parent = country
	use_for_ai_budget = yes
	ai_use_parent_for_resources_upkeep = {
		energy
	}

	hidden = yes
}

planet_structures = {
	parent = planets
	hidden = yes
	generate_mult_modifiers = {
		cost
		upkeep
	}
	modifier_category = planet
}

planet_buildings = {
	parent = planet_structures

	generate_mult_modifiers = {
		cost
		upkeep
	}
	modifier_category = planet
}

planet_buildings_strongholds = {
	parent = planet_buildings
}

planet_branch_offices = {
	parent = planets

	generate_mult_modifiers = {
		cost
	}

	generate_add_modifiers = {
		produces
	}
	modifier_category = planet
}

planet_buildings_hab_capital = {
	parent = planet_buildings

	generate_mult_modifiers = {
		upkeep
	}
	modifier_category = planet
}

planet_branch_office_buildings = {
	parent = planets
}

planet_holdings = {
	parent = planets
}

planet_districts = {
	parent = planet_structures

	generate_mult_modifiers = {
		cost
		upkeep
	}
	modifier_category = planet
}

planet_districts_cities = {
	parent = planet_districts
}

planet_districts_industrial = {
	parent = planet_districts
}

planet_districts_hab_energy = {
	parent = planet_districts
}

planet_districts_hab_industrial = {
	parent = planet_districts
}

planet_districts_hab_research = {
	parent = planet_districts
}

planet_districts_hab_mining = {
	parent = planet_districts
}

planet_districts_hab_trade = {
	parent = planet_districts
}

planet_districts_hab_leisure = {
	parent = planet_districts
}

planet_districts_orders_demesne = {
	parent = planet_districts
}

planet_jobs = {
	parent = planets

	generate_mult_modifiers = {
		produces
		upkeep
	}
	modifier_category = pop

	triggered_produces_modifier = {
		key = planet_jobs_slave
		modifier_types = {
			mult
		}
		trigger = {
			is_pop_category = slave
			has_job_category = worker
		}
	}

	triggered_produces_modifier = {
		key = planet_psionic_jobs
		modifier_types = {
			mult
		}
		trigger = {
			has_trait = trait_psionic
		}
	}

	triggered_produces_modifier = {
		key = planet_cyborg_jobs
		modifier_types = {
			mult
		}
		trigger = {
			has_trait = trait_cybernetic
		}
	}

	triggered_produces_modifier = {
		key = habitat_jobs
		modifier_types = {
			mult
		}
		trigger = {
			exists = planet
			planet = { is_planet_class = pc_habitat }
		}
	}

	triggered_produces_modifier = {
		key = non_artificial_planet_jobs
		modifier_types = {
			mult
		}
		trigger = {
			exists = planet
			planet = { is_artificial = no }
		}
	}

	triggered_produces_modifier = {
		key = planet_jobs_worker
		modifier_types = {
			mult
		}
		trigger = {
			OR = {
				is_pop_category = worker
				AND = {
					is_pop_category = slave # Yes, slave should count towards both worker and slave
					has_job_category = worker
				}
				is_pop_category = simple_drone
			}
		}
	}

	triggered_produces_modifier = { #use this one if deliberately excluding worker drones
		key = planet_jobs_worker_only
		modifier_types = {
			mult
		}
		trigger = {
			OR = {
				is_pop_category = worker
				AND = {
					is_pop_category = slave # Yes, slave should count towards both worker and slave
					has_job_category = worker
				}
			}
		}
	}

	triggered_produces_modifier = {
		key = planet_jobs_specialist
		modifier_types = {
			mult
		}
		trigger = {
			OR = {
				is_pop_category = specialist
				is_pop_category = complex_drone #planet_jobs_complex_drone is preferable for stuff visible during galaxy setup
				AND = {
					is_pop_category = slave
					has_job_category = specialist
				}
			}
		}
	}

	triggered_produces_modifier = { #use this one if deliberately excluding complex drones
		key = planet_jobs_specialist_only
		modifier_types = {
			mult
		}
		trigger = {
			OR = {
				is_pop_category = specialist
				AND = {
					is_pop_category = slave
					has_job_category = specialist
				}
			}
		}
	}

	triggered_produces_modifier = {
		key = planet_jobs_ruler
		modifier_types = {
			mult
		}
		trigger = {
			is_pop_category = ruler
		}
	}

	triggered_produces_modifier = {
		key = planet_jobs_simple_drone
		modifier_types = {
			mult
		}
		trigger = {
			is_pop_category = simple_drone
		}
	}

	triggered_produces_modifier = {
		key = planet_jobs_complex_drone
		modifier_types = {
			mult
		}
		trigger = {
			is_pop_category = complex_drone
		}
	}

	triggered_produces_modifier = {
		key = planet_jobs_complex_and_simple_drone
		modifier_types = {
			mult
		}
		trigger = {
			OR = {
				is_pop_category = complex_drone
				is_pop_category = simple_drone
			}

		}
	}

	triggered_produces_modifier = {
		key = planet_jobs_robotic
		modifier_types = {
			mult
		}
		trigger = {
			is_robot_pop = yes
		}
	}

	triggered_produces_modifier = {
		key = planet_jobs_organics
		modifier_types = {
			mult
		}
		trigger = {
			is_robot_pop = no
		}
	}
}

planet_jobs_productive = { #this should contain all categories that primarily produce resources (rather than e.g. amenities, trade, stability)
	parent = planet_jobs
	generate_mult_modifiers = {
		produces
		upkeep
	}
	modifier_category = pop
}

planet_bio_trophies = {
	parent = planet_jobs
	generate_mult_modifiers = {
		produces
	}
	modifier_category = pop
}

planet_pop_assemblers = {
	parent = planet_jobs
	generate_mult_modifiers = {
		upkeep
	}
	modifier_category = pop
}

planet_farmers = {
	parent = planet_jobs_productive
	generate_mult_modifiers = {
		produces
	}

	generate_add_modifiers = {
		produces
		upkeep
	}
	modifier_category = pop
}

planet_miners = {
	parent = planet_jobs_productive
	generate_mult_modifiers = {
		produces
	}

	generate_add_modifiers = {
		produces
		upkeep
	}
	modifier_category = pop
}

planet_sr_miners = { #added because we don't want miners_minerals_produces_add to apply to these
	parent = planet_miners
	generate_add_modifiers = {
		upkeep
	}
	generate_mult_modifiers = {
		produces
	}
	modifier_category = pop
}
planet_livestock = {
	parent = planet_jobs_productive
	generate_add_modifiers = {
		produces
	}
	modifier_category = pop
}

planet_technician = {
	parent = planet_jobs_productive
	generate_add_modifiers = {
		produces
		upkeep
	}
	generate_mult_modifiers = {
		produces
	}
	modifier_category = pop
}

planet_politicians = {
	parent = planet_jobs_productive
}

planet_administrators = {
	icon = "job_bureaucrat"
	parent = planet_jobs_productive
	generate_mult_modifiers = {
		produces
		upkeep
	}
	generate_add_modifiers = {
		produces
	}
	modifier_category = pop
}

planet_executives = {
	parent = planet_politicians
	generate_mult_modifiers = {
		produces
	}
	modifier_category = pop
}

planet_managers = {
	parent = planet_administrators
	generate_mult_modifiers = {
		produces
	}
	generate_add_modifiers = {
		produces
	}
	modifier_category = pop
}

planet_researchers = {
	icon = "job_researcher"
	parent = planet_jobs_productive
	generate_mult_modifiers = {
		produces
		upkeep
	}
	generate_add_modifiers = {
		upkeep
	}
	modifier_category = pop
}

planet_metallurgists = {
	icon = "job_foundry"
	parent = planet_jobs_productive
	generate_mult_modifiers = {
		produces
		upkeep
	}
	generate_add_modifiers = {
		produces
		upkeep
	}
	modifier_category = pop
}

planet_culture_workers = {
	parent = planet_administrators
}

planet_evaluators = {
	parent = planet_administrators
}

planet_synapse_drones = {
	parent = planet_administrators
}

planet_nobles = {
	parent = planet_politicians
}

planet_necro_apprentices = {
	parent = planet_pop_assemblers
}

planet_merchants = {
	parent = planet_jobs
}

planet_entertainers = {
	parent = planet_jobs
}

planet_soldiers = {
	parent = planet_jobs
	generate_add_modifiers = {
		produces
		upkeep
	}
	modifier_category = pop
}

planet_squires = {
	parent = planet_jobs
}

planet_priests = {
	parent = planet_administrators
	generate_mult_modifiers = {
		produces
	}
	generate_add_modifiers = {
		produces
	}
	modifier_category = pop
}

planet_enforcers = {
	parent = planet_jobs
	generate_add_modifiers = {
		produces
	}
	modifier_category = pop
}

planet_telepaths = {
	parent = planet_administrators
	generate_add_modifiers = {
		produces
	}
	modifier_category = pop
}

planet_doctors = {
	parent = planet_jobs
}

planet_refiners = {
	parent = planet_jobs_productive
	generate_mult_modifiers = {
		produces
		upkeep
	}
	modifier_category = pop
}

planet_translucers = {
	parent = planet_jobs_productive
	generate_mult_modifiers = {
		produces
		upkeep
	}
	modifier_category = pop
}

planet_chemists = {
	parent = planet_jobs_productive
	generate_mult_modifiers = {
		produces
		upkeep
	}
	modifier_category = pop
}

planet_artisans = {
	icon = "job_artisan"
	parent = planet_jobs_productive
	generate_mult_modifiers = {
		produces
		upkeep
	}
	generate_add_modifiers = {
		produces
		upkeep
	}
	modifier_category = pop
}

planet_bath_attendants = {
	icon = "job_bath_attendant"
	parent = planet_jobs
}

planet_bath_attendants_hive = {
	icon = "job_bath_attendant"
	parent = planet_jobs
}

planet_bath_attendants_machine = {
	icon = "job_bath_attendant"
	parent = planet_jobs
}

#DO NOT ASSIGN A PARENT TO THIS.
#It is a special hack. The normal job modifiers apply via knights_unity/research_output_modifier script values in the jobs
knights_independent_category = {
	generate_mult_modifiers = {
		produces
	}
}

planet_pops = {
	parent = planets
	generate_mult_modifiers = {
		upkeep
	}
	modifier_category = pop

	triggered_upkeep_modifier = {
		key = planet_pops_robotics
		modifier_types = {
			mult
		}
		trigger = {
			is_robot_pop = yes
		}
	}

	triggered_upkeep_modifier = {
		key = planet_pops_cyborgs
		modifier_types = {
			mult
		}
		trigger = {
			has_trait = trait_cybernetic
		}
	}

	triggered_upkeep_modifier = {
		key = planet_pops_organics
		modifier_types = {
			mult
		}
		trigger = {
			is_robot_pop = no
		}
	}

	triggered_upkeep_modifier = {
		key = planet_pops_unemployed
		modifier_types = {
			add
		}
		trigger = {
			is_unemployed = yes
		}
	}
}

unemployment_resources = {
	parent = planet_pops
	generate_add_modifiers = {
		produces
		upkeep
	}
	modifier_category = pop
}

pop_category_precursor = {
	parent = planet_pops
}

pop_category_xeno_ward = {
	parent = planet_pops
}

pop_category_pre_sapients = {
	parent = planet_pops
}

pop_category_purge = {
	parent = planet_pops
}

pop_category_bio_trophy = {
	parent = planet_pops
	generate_add_modifiers = {
		upkeep
	}
	modifier_category = pop
}

pop_category_slave = {
	parent = planet_pops
	generate_mult_modifiers = {
		upkeep
	}
	generate_add_modifiers = {
		upkeep
	}
	modifier_category = pop
}

pop_category_robot = {
	parent = planet_pops
}

pop_category_drones = {
	parent = planet_pops
}

pop_category_workers = {
	parent = planet_pops
	generate_add_modifiers = {
		upkeep
	}
	modifier_category = pop
}

pop_category_specialists = {
	parent = planet_pops
	generate_add_modifiers = {
		upkeep
	}
	modifier_category = pop
}

pop_category_rulers = {
	parent = planet_pops
	generate_add_modifiers = {
		upkeep
	}
	modifier_category = pop
}

pop_category_assimilation = {
	parent = planet_pops
}

planet_deposits = {
	parent = planets
}

orbital_mining_deposits = {
	parent = station_gatherers
}

orbital_research_deposits = {
	parent = station_researchers
}

deposit_blockers = {
	use_for_ai_budget = yes
	generate_mult_modifiers = {
		cost
	}
	modifier_category = deposit

	ai_use_parent_for_resources_upkeep = {
		energy
	}

	parent = country
}

deposit_blockers_natural = {
	generate_add_modifiers = {
		produces
	}
	modifier_category = deposit

	parent = deposit_blockers
}

armies = {
	use_for_ai_budget = yes

	generate_mult_modifiers = {
		cost
		upkeep
	}
	modifier_category = army

	parent = country
}

leaders = {
	use_for_ai_budget = yes
	generate_mult_modifiers = {
		cost
		upkeep
	}
	modifier_category = leader

	ai_use_parent_for_resources_upkeep = {
		energy
	}

	parent = country
}

leader_admirals = {
	parent = leaders
}

leader_generals = {
	parent = leaders
}

leader_scientists = {
	parent = leaders
}

leader_governors = {
	parent = leaders
}

diplomacy = {
	hidden = yes
	parent = country
	generate_mult_modifiers = {
		upkeep
	}
	modifier_category = country
}

# Country wide modifier collection
country_container = {
	hidden = yes
	parent = country
}

country_monuments = {
	parent = country_container
	generate_add_modifiers = {
		produces
	}
	modifier_category = country
}

country_ambition = {
	parent = country_container
	generate_add_modifiers = {
		produces
	}
	modifier_category = country
}

country_federation_perks = {
	parent = country_container
	generate_add_modifiers = {
		produces
	}
	modifier_category = country
}

country_civics = {
	parent = country_container
	generate_add_modifiers = {
		upkeep
		produces
	}
	modifier_category = country
}

country_ai_uprising = {
	parent = country_container
	generate_add_modifiers = {
		produces
	}
	modifier_category = country
}

country_covenant = {
	parent = country_container
	generate_add_modifiers = {
		produces
	}
	modifier_category = country
}

country_dessanu = {
	parent = country_container
	generate_add_modifiers = {
		produces
	}
	modifier_category = country
}

country_extended_payout = {
	parent = country_container
	generate_add_modifiers = {
		produces
	}
	modifier_category = country
}

country_shoulders = {
	parent = country_container
	generate_add_modifiers = {
		produces
	}
	modifier_category = country
}

country_galactic_standard = {
	parent = country_container
	generate_add_modifiers = {
		produces
	}
	modifier_category = country
}

country_concessions = {
	parent = country_container
	generate_add_modifiers = {
		produces
	}
	modifier_category = country
}

country_first_contact = {
	parent = country_container
	generate_add_modifiers = {
		produces
	}
	modifier_category = country
}

country_custodian = {
	parent = country_container
	generate_add_modifiers = {
		produces
	}
	modifier_category = country
}

country_tech = {
	parent = country_container
	generate_add_modifiers = {
		produces
	}
	modifier_category = country
}

country_traditions = {
	parent = country_container
	generate_add_modifiers = {
		produces
	}
	modifier_category = country
}

country_ruler = {
	parent = country_container
	generate_add_modifiers = {
		produces
	}
	modifier_category = country
}

country_ethic = {
	parent = country_container
	generate_add_modifiers = {
		produces
	}
	modifier_category = country
}

country_first_league_homeworld = {
	parent = country_container
	generate_add_modifiers = {
		produces
	}
	modifier_category = country
}

country_power_projection = {
	parent = country_container
	generate_add_modifiers = {
		produces
	}
	generate_mult_modifiers = {
		produces
	}
	modifier_category = country
}

pop_factions = {
	parent = country
	generate_mult_modifiers = {
		produces
	}
	modifier_category = country #pop factions category currently unused
}

subjects = {
	parent = diplomacy
}

federation = {
	parent = diplomacy
	generate_add_modifiers = {
		produces
	}
	modifier_category = country
}

rivalries = {
	parent = diplomacy
}

non_aggression_pacts = {
	parent = diplomacy
}

migration_pacts = {
	parent = diplomacy
}

research_agreements = {
	parent = diplomacy
}

commercial_pacts = {
	parent = diplomacy
}

defensive_pacts = {
	parent = diplomacy
}

guarantees = {
	parent = diplomacy
}

monthly_trades = {
	generate_add_modifiers = {
		produces
	}
	modifier_category = country
}

claims = {
	use_for_ai_budget = yes
	parent = country
}

agreement_proposals = {
	use_for_ai_budget = yes
	parent = diplomacy
}

subject_tax = {
}

envoy_costs = {
	parent = diplomacy
}

diplo_closed_borders = {
	parent = diplomacy
}

diplomatic_networking = {
	parent = diplomacy
}

subject_integration = {
}

overlord_subsidy = {
}

specialist_subject_conversion = {
}

relics = {
}

artifact_actions = {
}

sector = {
}

menace = {
}

traditions = {
		use_for_ai_budget = yes
		parent = country
}

operations = {
	use_for_ai_budget = yes
	ai_use_parent_for_resources_upkeep = {
		energy
	}
	generate_mult_modifiers = {
		cost
		upkeep
	}
	parent = country
	modifier_category = espionage
}

country_situations = {
	generate_add_modifiers = {
		produces
	}
	modifier_category = country
}
