############################
#
# Refugee Events
#
# Written by Martin Anward
#
############################

namespace = refugees

# Refugees Arrive (new species)
pop_event = {
	id = refugees.1
	title = refugees.1.name
	picture = GFX_evt_unknown_ships
	location = root

	desc = {
		text = refugees.1.desc.1
		trigger = {
			event_target:RefugeeEscapedPlanet = {
				is_under_crisis_bombardment = no
			}
			event_target:RefugeeEscapedFrom = {
				root = {
					OR = {
						NOT = { has_citizenship_type = { type = citizenship_purge country = prev } }
						has_purge_type = { type = purge_displacement country = prev }
					}
				}
			}
		}
	}
	desc = {
		text = refugees.1.desc.2
		trigger = {
			event_target:RefugeeEscapedPlanet = {
				is_under_crisis_bombardment = no
			}
			event_target:RefugeeEscapedFrom = {
				root = {
					has_citizenship_type = { type = citizenship_purge country = prev }
					NOT = { has_purge_type = { type = purge_displacement country = prev } }
					prev = { is_gestalt = no }
				}
			}
		}
	}
	desc = {
		text = refugees.1.desc.2.b
		trigger = {
			event_target:RefugeeEscapedPlanet = {
				is_under_crisis_bombardment = no
			}
			event_target:RefugeeEscapedFrom = {
				root = {
					has_citizenship_type = { type = citizenship_purge country = prev }
					NOT = { has_purge_type = { type = purge_displacement country = prev } }
					prev = { is_gestalt = yes }
				}
			}
		}
	}
	desc = {
		text = refugees.1.desc.3
		trigger = {
			event_target:RefugeeEscapedPlanet = {
				is_under_crisis_bombardment = yes
			}
		}
	}

	is_triggered_only = yes

	option = {
		name = refugees.1.a
		if = {
			limit = {
				event_target:RefugeeEscapedFrom = {
					is_crisis_faction = no
				}
			}
			owner = {
				add_intel = {
					who = event_target:RefugeeEscapedFrom
					amount = 10
				}
			}
		}
	}
}

# Refugees Arrive (species already present in empire)
pop_event = {
	id = refugees.2
	title = OK
	desc = OK

	hide_window = yes
	is_triggered_only = yes

	immediate = {
		create_message = {
			type = MESSAGE_TYPE_REFUGEES_ARRIVED
			localization = MESSAGE_REFUGEES_ARRIVED
			days = 30
			target = event_target:RefugeeEscapedPlanet # the Go To
			variable = {
				type = name
				localization = SPECIES
				scope = root.species
			}
			variable = {
				type = name
				localization = PLANET
				scope = root.planet
			}
			variable = {
				type = name
				localization = COUNTRY
				scope = event_target:RefugeeEscapedFrom
			}
		}
		if = {
			limit = {
				event_target:RefugeeEscapedFrom = {
					is_crisis_faction = no
				}
			}
			owner = {
				add_intel = {
					who = event_target:RefugeeEscapedFrom
					amount = 10
				}
			}
		}
	}
}

# Pop is made refugee (triggered)
planet_event = {
	id = refugees.3
	title = OK
	desc = OK

	hide_window = yes
	is_triggered_only = yes

	immediate = {
		fromfrom = { pop_event = { id = refugees.4 } }
	}
}

# Pop is made refugee (triggered)
pop_event = {
	id = refugees.4
	title = OK
	desc = OK

	hide_window = yes
	is_triggered_only = yes

	immediate = {
		if = {
			limit = { is_valid_refugee_pop = yes }
			save_event_target_as = refugee_pop #Must be saved for refugee_pop_effect to work
			refugee_pop_effect = yes
		}
		else = { kill_pop = yes }
	}
}

# Pop escapes crisis, fleeing to another empire
planet_event = {
	id = refugees.5
	title = OK
	desc = OK

	hide_window = yes

	trigger = {
		exists = owner
		owner = { is_country_type = default }
		is_controlled_by = owner
		is_under_crisis_bombardment = yes
	}

	mean_time_to_happen = {
		months = 3
	}

	immediate = {
		random_owned_pop = {
			limit = { is_valid_refugee_pop = yes }
			save_event_target_as = refugee_pop #Must be saved for refugee_pop_effect to work
			refugee_pop_effect = yes
		}
	}
}
